<svg xmlns="http://www.w3.org/2000/svg" width="10" height="18" viewBox="0 0 10 18">
    <path fill="#B1B6BB" fill-rule="nonzero" d="M.72 16.47a.75.75 0 0 0 1.06 1.06l8-8a.75.75 0 0 0 0-1.06l-8-8A.75.75 0 0 0 .72 1.53L8.19 9 .72 16.47z"/>
</svg>
